Systematics,jet Type,WP,500-600,600-800,800-1000,1000-1200,1200-1500,1500-2000
trk_eff,Gluon,0.6,"0.01551961,0.01638574,0.01658754,0.01688472,0.01609701,0.00952872"
MC_nonclosure,Gluon,0.6,"-0.01010722,-0.01723766,-0.02404901,-0.04241774,-0.07364608,-0.08015492"
gluon_reweight,Gluon,0.6,"-0.00059536,0.00026376,0.00091006,0.00227994,0.00227109,0.00065713"
pdf_weight,Gluon,0.6,"0.04968296,0.05677311,0.06133915,0.07045771,0.06916023,0.06216799"
